{
  "images" : [
    {
      "idiom" : "iphone",
      "filename" : "Arrow 4 Blue.png",
      "scale" : "1x"
    },
    {
      "idiom" : "iphone",
      "filename" : "Arrow 4 Blue@2x-2.png",
      "scale" : "2x"
    },
    {
      "idiom" : "iphone",
      "filename" : "Arrow 4 Blue@3x.png",
      "scale" : "3x"
    },
    {
      "idiom" : "ipad",
      "filename" : "Arrow 4 Red.png",
      "scale" : "1x"
    },
    {
      "idiom" : "ipad",
      "filename" : "Arrow 4 Red@2x.png",
      "scale" : "2x"
    }
  ],
  "info" : {
    "version" : 1,
    "author" : "xcode"
  }
}