{
  "images" : [
    {
      "idiom" : "iphone",
      "filename" : "Asset 209@1x.png",
      "scale" : "1x"
    },
    {
      "idiom" : "iphone",
      "filename" : "Asset 209@2x.png",
      "scale" : "2x"
    },
    {
      "idiom" : "iphone",
      "filename" : "Asset 209@3x.png",
      "scale" : "3x"
    },
    {
      "idiom" : "ipad",
      "filename" : "Asset 238@1x.png",
      "scale" : "1x"
    },
    {
      "idiom" : "ipad",
      "filename" : "Asset 238@2x.png",
      "scale" : "2x"
    }
  ],
  "info" : {
    "version" : 1,
    "author" : "xcode"
  }
}