{
  "images" : [
    {
      "idiom" : "iphone",
      "filename" : "Asset 202@1x.png",
      "scale" : "1x"
    },
    {
      "idiom" : "iphone",
      "filename" : "Asset 202@2x.png",
      "scale" : "2x"
    },
    {
      "idiom" : "iphone",
      "filename" : "Asset 202@3x.png",
      "scale" : "3x"
    },
    {
      "idiom" : "ipad",
      "filename" : "Asset 246@1x.png",
      "scale" : "1x"
    },
    {
      "idiom" : "ipad",
      "filename" : "Asset 246@2x.png",
      "scale" : "2x"
    }
  ],
  "info" : {
    "version" : 1,
    "author" : "xcode"
  }
}