{
  "images" : [
    {
      "idiom" : "iphone",
      "filename" : "Asset 229@1x.png",
      "scale" : "1x"
    },
    {
      "idiom" : "iphone",
      "filename" : "Asset 229@2x.png",
      "scale" : "2x"
    },
    {
      "idiom" : "iphone",
      "filename" : "Asset 229@3x.png",
      "scale" : "3x"
    },
    {
      "idiom" : "ipad",
      "filename" : "Asset 263@1x.png",
      "scale" : "1x"
    },
    {
      "idiom" : "ipad",
      "filename" : "Asset 263@2x.png",
      "scale" : "2x"
    }
  ],
  "info" : {
    "version" : 1,
    "author" : "xcode"
  }
}