{
  "images" : [
    {
      "idiom" : "iphone",
      "filename" : "Asset 206@1x.png",
      "scale" : "1x"
    },
    {
      "idiom" : "iphone",
      "filename" : "Asset 206@2x.png",
      "scale" : "2x"
    },
    {
      "idiom" : "iphone",
      "filename" : "Asset 206@3x.png",
      "scale" : "3x"
    },
    {
      "idiom" : "ipad",
      "filename" : "Asset 253@1x.png",
      "scale" : "1x"
    },
    {
      "idiom" : "ipad",
      "filename" : "Asset 253@2x.png",
      "scale" : "2x"
    }
  ],
  "info" : {
    "version" : 1,
    "author" : "xcode"
  }
}