{
  "images" : [
    {
      "idiom" : "iphone",
      "filename" : "Arrow 3 Yellow.png",
      "scale" : "1x"
    },
    {
      "idiom" : "iphone",
      "filename" : "Arrow 3 Yellow@2x-2.png",
      "scale" : "2x"
    },
    {
      "idiom" : "iphone",
      "filename" : "Arrow 3 Yellow@3x.png",
      "scale" : "3x"
    },
    {
      "idiom" : "ipad",
      "filename" : "Arrow -2.png",
      "scale" : "1x"
    },
    {
      "idiom" : "ipad",
      "filename" : "Arrow -2@2x.png",
      "scale" : "2x"
    }
  ],
  "info" : {
    "version" : 1,
    "author" : "xcode"
  }
}